[
    {
      "op": "mapping-editor/save-rdf-mapping",
      "mapping": {
        "baseIRI": "http://example.com/base/",
        "namespaces": {
          "vph-pers": "http://purl.org/ozo/vph-pers#",
          "vph-g": "http://purl.org/ozo/vph-g#",
          "data": "http://testdata.zin.nl/",
          "xsd": "http://www.w3.org/2001/XMLSchema#"
        },
        "subjectMappings": [
          {
            "subject": {
              "valueSource": {
                "source": "column",
                "columnName": "contract_id"
              },
              "transformation": {
                "language": "prefix",
                "expression": "data:overeenkomst/"
              }
            },
            "typeMappings": [],
            "propertyMappings": [
              {
                "property": {
                  "valueSource": {
                    "source": "constant",
                    "constant": "bijbehorendeWerkPeriode"
                  },
                  "transformation": {
                    "language": "prefix",
                    "expression": "vph-pers"
                  }
                },
                "values": [
                  {
                    "valueSource": {
                      "source": "column",
                      "columnName": "id"
                    },
                    "transformation": {
                      "language": "prefix",
                      "expression": "data:werkperiode/"
                    },
                    "valueType": {
                      "type": "iri",
                      "typeMappings": [
                        {
                          "valueSource": {
                            "source": "constant",
                            "constant": "GewerktePeriode"
                          },
                          "transformation": {
                            "language": "prefix",
                            "expression": "vph-pers"
                          }
                        }
                      ],
                      "propertyMappings": [
                        {
                          "property": {
                            "valueSource": {
                              "source": "constant",
                              "constant": "startDatum"
                            },
                            "transformation": {
                              "language": "prefix",
                              "expression": "vph-g"
                            }
                          },
                          "values": [
                            {
                              "valueSource": {
                                "source": "column",
                                "columnName": "startdatum"
                              },
                              "valueType": {
                                "type": "datatype_literal",
                                "datatype": {
                                  "valueSource": {
                                    "source": "constant",
                                    "constant": "date"
                                  },
                                  "transformation": {
                                    "language": "prefix",
                                    "expression": "xsd"
                                  }
                                }
                              }
                            }
                          ]
                        },
                        {
                          "property": {
                            "valueSource": {
                              "source": "constant",
                              "constant": "eindDatum"
                            },
                            "transformation": {
                              "language": "prefix",
                              "expression": "vph-g"
                            }
                          },
                          "values": [
                            {
                              "valueSource": {
                                "source": "column",
                                "columnName": "einddatum"
                              },
                              "valueType": {
                                "type": "datatype_literal",
                                "datatype": {
                                  "valueSource": {
                                    "source": "constant",
                                    "constant": "date"
                                  },
                                  "transformation": {
                                    "language": "prefix",
                                    "expression": "xsd"
                                  }
                                }
                              }
                            }
                          ]
                        },
                        {
                          "property": {
                            "valueSource": {
                              "source": "constant",
                              "constant": "gewerkteUren"
                            },
                            "transformation": {
                              "language": "prefix",
                              "expression": "vph-pers"
                            }
                          },
                          "values": [
                            {
                              "valueSource": {
                                "source": "column",
                                "columnName": "uren_gewerkt"
                              },
                              "valueType": {
                                "type": "datatype_literal",
                                "datatype": {
                                  "valueSource": {
                                    "source": "constant",
                                    "constant": "integer"
                                  },
                                  "transformation": {
                                    "language": "prefix",
                                    "expression": "xsd"
                                  }
                                }
                              }
                            }
                          ]
                        }
                      ]
                    }
                  }
                ]
              }
            ]
          }
        ]
      },
      "description": "Save RDF Mapping"
    }
  ]