[
    {
      "op": "mapping-editor/save-rdf-mapping",
      "mapping": {
        "baseIRI": "http://example.com/base/",
        "namespaces": {
          "vph-fin": "http://purl.org/ozo/vph-fin#",
          "data": "http://testdata.zin.nl/",
          "vph-g": "http://purl.org/ozo/vph-g#"
        },
        "subjectMappings": [
          {
            "subject": {
              "valueSource": {
                "source": "column",
                "columnName": "id"
              },
              "transformation": {
                "language": "prefix",
                "expression": "data:grootboek/"
              }
            },
            "typeMappings": [
              {
                "valueSource": {
                  "source": "constant",
                  "constant": "GrootboekRekening"
                },
                "transformation": {
                  "language": "prefix",
                  "expression": "vph-fin"
                }
              }
            ],
            "propertyMappings": [
              {
                "property": {
                  "valueSource": {
                    "source": "constant",
                    "constant": "partOf"
                  },
                  "transformation": {
                    "language": "prefix",
                    "expression": "vph-g"
                  }
                },
                "values": [
                  {
                    "valueSource": {
                      "source": "column",
                      "columnName": "partOf"
                    },
                    "transformation": {
                      "language": "prefix",
                      "expression": "vph-fin"
                    },
                    "valueType": {
                      "type": "iri",
                      "typeMappings": [],
                      "propertyMappings": []
                    }
                  }
                ]
              }
            ]
          }
        ]
      },
      "description": "Save RDF Mapping"
    }
  ]