[
  {
    "op": "mapping-editor/save-rdf-mapping",
    "mapping": {
      "baseIRI": "http://example.com/base/",
      "namespaces": {
        "vph-g": "http://purl.org/ozo/vph-g#",
        "vph-zorg": "http://purl.org/ozo/vph-zorg#",
        "data": "http://testdata.zin.nl/",
        "xsd": "http://www.w3.org/2001/XMLSchema#",
        "vph-org": "http://purl.org/ozo/vph-org#"
      },
      "subjectMappings": [
        {
          "subject": {
            "valueSource": {
              "source": "column",
              "columnName": "opname"
            },
            "transformation": {
              "language": "prefix",
              "expression": "data:opname/"
            }
          },
          "typeMappings": [
            {
              "valueSource": {
                "source": "constant",
                "constant": "NursingProcess"
              },
              "transformation": {
                "language": "prefix",
                "expression": "vph-zorg"
              }
            }
          ],
          "propertyMappings": [
            {
              "property": {
                "valueSource": {
                  "source": "constant",
                  "constant": "hasParticipant"
                },
                "transformation": {
                  "language": "prefix",
                  "expression": "vph-g"
                }
              },
              "values": [
                {
                  "valueSource": {
                    "source": "column",
                    "columnName": "client"
                  },
                  "transformation": {
                    "language": "prefix",
                    "expression": "data:client/"
                  },
                  "valueType": {
                    "type": "iri",
                    "typeMappings": [],
                    "propertyMappings": []
                  }
                }
              ]
            },
            {
              "property": {
                "valueSource": {
                  "source": "constant",
                  "constant": "startDatum"
                },
                "transformation": {
                  "language": "prefix",
                  "expression": "vph-g"
                }
              },
              "values": [
                {
                  "valueSource": {
                    "source": "column",
                    "columnName": "startdatum"
                  },
                  "valueType": {
                    "type": "datatype_literal",
                    "datatype": {
                      "valueSource": {
                        "source": "constant",
                        "constant": "date"
                      },
                      "transformation": {
                        "language": "prefix",
                        "expression": "xsd"
                      }
                    }
                  }
                }
              ]
            },
            {
              "property": {
                "valueSource": {
                  "source": "constant",
                  "constant": "eindDatum"
                },
                "transformation": {
                  "language": "prefix",
                  "expression": "vph-g"
                }
              },
              "values": [
                {
                  "valueSource": {
                    "source": "column",
                    "columnName": "einddatum"
                  },
                  "valueType": {
                    "type": "datatype_literal",
                    "datatype": {
                      "valueSource": {
                        "source": "constant",
                        "constant": "date"
                      },
                      "transformation": {
                        "language": "prefix",
                        "expression": "xsd"
                      }
                    }
                  }
                }
              ]
            },
            {
              "property": {
                "valueSource": {
                  "source": "constant",
                  "constant": "hasPerdurantLocation"
                },
                "transformation": {
                  "language": "prefix",
                  "expression": "vph-g"
                }
              },
              "values": [
                {
                  "valueSource": {
                    "source": "column",
                    "columnName": "afdeling"
                  },
                  "transformation": {
                    "language": "prefix",
                    "expression": "data:lokatie/"
                  },
                  "valueType": {
                    "type": "iri",
                    "typeMappings": [
                      {
                        "valueSource": {
                          "source": "constant",
                          "constant": "Vestiging"
                        },
                        "transformation": {
                          "language": "prefix",
                          "expression": "vph-org"
                        }
                      }
                    ],
                    "propertyMappings": []
                  }
                }
              ]
            },
            {
              "property": {
                "valueSource": {
                  "source": "constant",
                  "constant": "describedBy"
                },
                "transformation": {
                  "language": "prefix",
                  "expression": "vph-g"
                }
              },
              "values": [
                {
                  "valueSource": {
                    "source": "column",
                    "columnName": "zzp"
                  },
                  "transformation": {
                    "language": "prefix",
                    "expression": "vph-zorg"
                  },
                  "valueType": {
                    "type": "iri",
                    "typeMappings": [],
                    "propertyMappings": []
                  }
                }
              ]
            }
          ]
        },
        {
          "subject": {
            "valueSource": {
              "source": "row_index"
            }
          },
          "typeMappings": [
            {
              "valueSource": {
                "source": "constant",
                "constant": "WlzIndicatie"
              },
              "transformation": {
                "language": "prefix",
                "expression": "vph-zorg"
              }
            }
          ],
          "propertyMappings": [
            {
              "property": {
                "valueSource": {
                  "source": "constant",
                  "constant": "isAbout"
                },
                "transformation": {
                  "language": "prefix",
                  "expression": "vph-g"
                }
              },
              "values": [
                {
                  "valueSource": {
                    "source": "column",
                    "columnName": "client"
                  },
                  "transformation": {
                    "language": "prefix",
                    "expression": "data:client/"
                  },
                  "valueType": {
                    "type": "iri",
                    "typeMappings": [],
                    "propertyMappings": []
                  }
                }
              ]
            },
            {
              "property": {
                "valueSource": {
                  "source": "constant",
                  "constant": "hasPart"
                },
                "transformation": {
                  "language": "prefix",
                  "expression": "vph-g"
                }
              },
              "values": [
                {
                  "valueSource": {
                    "source": "column",
                    "columnName": "zzp"
                  },
                  "transformation": {
                    "language": "prefix",
                    "expression": "vph-zorg"
                  },
                  "valueType": {
                    "type": "iri",
                    "typeMappings": [],
                    "propertyMappings": []
                  }
                }
              ]
            },
            {
              "property": {
                "valueSource": {
                  "source": "constant",
                  "constant": "startDatum"
                },
                "transformation": {
                  "language": "prefix",
                  "expression": "vph-g"
                }
              },
              "values": [
                {
                  "valueSource": {
                    "source": "column",
                    "columnName": "startdatum"
                  },
                  "valueType": {
                    "type": "datatype_literal",
                    "datatype": {
                      "valueSource": {
                        "source": "constant",
                        "constant": "date"
                      },
                      "transformation": {
                        "language": "prefix",
                        "expression": "xsd"
                      }
                    }
                  }
                }
              ]
            }
          ]
        }
      ]
    },
    "description": "Save RDF Mapping"
  }
]