[
    {
      "op": "core/column-addition",
      "engineConfig": {
        "facets": [],
        "mode": "row-based"
      },
      "baseColumnName": "hersteldatum",
      "expression": "grel:value.toDate('yyyy-MM-dd').inc(-1,\"day\").toString('yyyy-MM-dd')",
      "onError": "set-to-blank",
      "newColumnName": "einddatum",
      "columnInsertIndex": 5,
      "description": "Create column einddatum at index 5 based on column hersteldatum using expression grel:value.toDate('yyyy-MM-dd').inc(-1,\"day\").toString('yyyy-MM-dd')"
    },
    {
      "op": "mapping-editor/save-rdf-mapping",
      "mapping": {
        "baseIRI": "http://example.com/base/",
        "namespaces": {
          "data": "http://testdata.zin.nl/",
          "onz-pers": "http://purl.org/ozo/onz-pers#",
          "onz-g": "http://purl.org/ozo/onz-g#",
          "xsd": "http://www.w3.org/2001/XMLSchema#"
        },
        "subjectMappings": [
          {
            "subject": {
              "valueSource": {
                "source": "column",
                "columnName": "werknemer_id"
              },
              "transformation": {
                "language": "prefix",
                "expression": "data:personeel/"
              }
            },
            "typeMappings": [],
            "propertyMappings": [
              {
                "property": {
                  "valueSource": {
                    "source": "constant",
                    "constant": "hasQuality"
                  },
                  "transformation": {
                    "language": "prefix",
                    "expression": "onz-g"
                  }
                },
                "values": [
                  {
                    "valueSource": {
                      "source": "record_id"
                    },
                    "valueType": {
                      "type": "unique_bnode",
                      "typeMappings": [
                        {
                          "valueSource": {
                            "source": "constant",
                            "constant": "ArbeidsOngeschiktheid"
                          },
                          "transformation": {
                            "language": "prefix",
                            "expression": "onz-pers"
                          }
                        }
                      ],
                      "propertyMappings": [
                        {
                          "property": {
                            "valueSource": {
                              "source": "constant",
                              "constant": "hasQualityValue"
                            },
                            "transformation": {
                              "language": "prefix",
                              "expression": "onz-g"
                            }
                          },
                          "values": [
                            {
                              "valueSource": {
                                "source": "record_id"
                              },
                              "valueType": {
                                "type": "unique_bnode",
                                "typeMappings": [
                                  {
                                    "valueSource": {
                                      "source": "constant",
                                      "constant": "AOPercentage"
                                    },
                                    "transformation": {
                                      "language": "prefix",
                                      "expression": "onz-pers"
                                    }
                                  }
                                ],
                                "propertyMappings": [
                                  {
                                    "property": {
                                      "valueSource": {
                                        "source": "constant",
                                        "constant": "startDatum"
                                      },
                                      "transformation": {
                                        "language": "prefix",
                                        "expression": "onz-g"
                                      }
                                    },
                                    "values": [
                                      {
                                        "valueSource": {
                                          "source": "column",
                                          "columnName": "startdatum"
                                        },
                                        "valueType": {
                                          "type": "datatype_literal",
                                          "datatype": {
                                            "valueSource": {
                                              "source": "constant",
                                              "constant": "date"
                                            },
                                            "transformation": {
                                              "language": "prefix",
                                              "expression": "xsd"
                                            }
                                          }
                                        }
                                      }
                                    ]
                                  },
                                  {
                                    "property": {
                                      "valueSource": {
                                        "source": "constant",
                                        "constant": "eindDatum"
                                      },
                                      "transformation": {
                                        "language": "prefix",
                                        "expression": "onz-g"
                                      }
                                    },
                                    "values": [
                                      {
                                        "valueSource": {
                                          "source": "column",
                                          "columnName": "einddatum"
                                        },
                                        "valueType": {
                                          "type": "datatype_literal",
                                          "datatype": {
                                            "valueSource": {
                                              "source": "constant",
                                              "constant": "date"
                                            },
                                            "transformation": {
                                              "language": "prefix",
                                              "expression": "xsd"
                                            }
                                          }
                                        }
                                      }
                                    ]
                                  },
                                  {
                                    "property": {
                                      "valueSource": {
                                        "source": "constant",
                                        "constant": "hasDataValue"
                                      },
                                      "transformation": {
                                        "language": "prefix",
                                        "expression": "onz-g"
                                      }
                                    },
                                    "values": [
                                      {
                                        "valueSource": {
                                          "source": "column",
                                          "columnName": "ao_percentage"
                                        },
                                        "valueType": {
                                          "type": "datatype_literal",
                                          "datatype": {
                                            "valueSource": {
                                              "source": "constant",
                                              "constant": "decimal"
                                            },
                                            "transformation": {
                                              "language": "prefix",
                                              "expression": "xsd"
                                            }
                                          }
                                        }
                                      }
                                    ]
                                  },
                                  {
                                    "property": {
                                      "valueSource": {
                                        "source": "constant",
                                        "constant": "hasUnitOfMeasure"
                                      },
                                      "transformation": {
                                        "language": "prefix",
                                        "expression": "onz-g"
                                      }
                                    },
                                    "values": [
                                      {
                                        "valueSource": {
                                          "source": "constant",
                                          "constant": "percent"
                                        },
                                        "transformation": {
                                          "language": "prefix",
                                          "expression": "onz-g"
                                        },
                                        "valueType": {
                                          "type": "iri",
                                          "typeMappings": [],
                                          "propertyMappings": []
                                        }
                                      }
                                    ]
                                  }
                                ]
                              }
                            }
                          ]
                        }
                      ]
                    }
                  }
                ]
              },
              {
                "property": {
                  "valueSource": {
                    "source": "constant",
                    "constant": "isParticipantIn"
                  },
                  "transformation": {
                    "language": "prefix",
                    "expression": "onz-g"
                  }
                },
                "values": [
                  {
                    "valueSource": {
                      "source": "record_id"
                    },
                    "valueType": {
                      "type": "unique_bnode",
                      "typeMappings": [
                        {
                          "valueSource": {
                            "source": "constant",
                            "constant": "ZiektePeriode"
                          },
                          "transformation": {
                            "language": "prefix",
                            "expression": "onz-pers"
                          }
                        }
                      ],
                      "propertyMappings": [
                        {
                          "property": {
                            "valueSource": {
                              "source": "constant",
                              "constant": "startDatum"
                            },
                            "transformation": {
                              "language": "prefix",
                              "expression": "onz-g"
                            }
                          },
                          "values": [
                            {
                              "valueSource": {
                                "source": "column",
                                "columnName": "startdatum"
                              },
                              "valueType": {
                                "type": "datatype_literal",
                                "datatype": {
                                  "valueSource": {
                                    "source": "constant",
                                    "constant": "date"
                                  },
                                  "transformation": {
                                    "language": "prefix",
                                    "expression": "xsd"
                                  }
                                }
                              }
                            }
                          ]
                        },
                        {
                          "property": {
                            "valueSource": {
                              "source": "constant",
                              "constant": "eindDatum"
                            },
                            "transformation": {
                              "language": "prefix",
                              "expression": "onz-g"
                            }
                          },
                          "values": [
                            {
                              "valueSource": {
                                "source": "column",
                                "columnName": "einddatum"
                              },
                              "valueType": {
                                "type": "datatype_literal",
                                "datatype": {
                                  "valueSource": {
                                    "source": "constant",
                                    "constant": "date"
                                  },
                                  "transformation": {
                                    "language": "prefix",
                                    "expression": "xsd"
                                  }
                                }
                              }
                            }
                          ]
                        }
                      ]
                    }
                  }
                ]
              }
            ]
          }
        ]
      },
      "description": "Save RDF Mapping"
    }
  ]